module github.com/panjf2000/gnet

go 1.12

require (
	github.com/gobwas/pool v0.2.0
	github.com/libp2p/go-reuseport v0.0.1
	github.com/panjf2000/ants/v2 v2.1.1
	golang.org/x/sys v0.0.0-20190312061237-fead79001313
)
